…
Yes, these data support Buzzfeed’s claim. While the majority of winners
reside in the U.S. when they receive the award, the majority of winners
in all disciplines except economics were born outside of the U.S.

### Exercise 6

``` r
nobel_living_science %>% 
  filter(country_us=="USA" & born_country_us=="Other") %>%
  count(born_country) %>%
  arrange(desc(n))
```

    ## # A tibble: 21 × 2
    ##    born_country       n
    ##    <chr>          <int>
    ##  1 Germany            7
    ##  2 United Kingdom     7
    ##  3 China              5
    ##  4 Canada             4
    ##  5 Japan              3
    ##  6 Australia          2
    ##  7 Israel             2
    ##  8 Norway             2
    ##  9 Austria            1
    ## 10 Finland            1
    ## # … with 11 more rows
…
